{
	"james":[ 
		{"title":"AERS Advisory Partner, M&A Transaction Services (\"MATS\"), New York Conversation Between James Simmons and Player", "name":"James Simmons", "desc":"James is an accounting partner in Deloitte's M&A Transaction Services practice in New York City. He joined the firm 4 years ago from Johnstone, the Boston accounting firm where he also earned his CPA. Prior to Johnstone, James was at Boston College studying for his MBA in finance. Originally, his plans were to become a lawyer and go into his father's law firm, but he decided in his junior year that he wanted to start making money and make a name on his own. James is regarded within Deloitte in the States as a rising star with considerable potential as an oil and gas M&A specialist. He is excellent at the nuts and bolts of M&A work – financial due diligence, identifying potential deal breakers and deal execution. He is respected for his skills in this area, although at times can be demanding of colleagues and impatient with clients. Often his style comes across as uncompromising, and his desire to get the deal done causes him to ignore the important details. James has worked with Matt Green, Head of Business Development for WEC US, on four of WEC's last seven global acquisitions, but this is the first divestment. James and Matt have a good working relationship. Around the same age and with similar ambitions, they see each other as being able to help their mutual career goals. James has worked closely with Kevin Short, who also has been involved in all the recent WEC acquisitions. Kevin has positioned himself as a valuable mentor to James, but this has not always been readily received. James has felt that Kevin is too protective of his relationship with WEC and too methodical in his business dealings, which James feels has been a hindrance to getting the deals done."},
		{ "id":1, "speaker":"player", "dialogue":"James, thanks for coming in today. As you may be aware, I have been asked by senior leadership to investigate a confidentiality breach that may have involved your deal team on a recent engagement with WEC.", "choices":[2], "coaching":"", "blotter":""},
		{ "id":2, "speaker":"james", "dialogue":"No problem. I always follow our M&A policies and protocols, so this discussion should be straightforward. But I am glad leadership is taking action as I am also curious as to what may have happened. So, fire away!", "choices":[3,4,5], "coaching":"", "blotter":""},
		{ "id":3, "speaker":"player", "dialogue":"What was the first thing you did after Matt Green informed you that Deloitte had won the sell-side advisory mandate to assist WEC with the divestiture of BSC?", "choices":[6], "coaching":"", "blotter":""},
		{ "id":4, "speaker":"player", "dialogue":"How did Matt Green at WEC in Houston let you know that you had won the sell-side advisory mandate to assist WEC with the divestiture of BSC?", "choices":[7], "coaching":"", "blotter":""},
		{ "id":5, "speaker":"player", "dialogue":"Tell me about your relationship with Matt Green. I understand that you are close friends.", "choices":[8], "coaching":"", "blotter":""},
		{ "id":6, "speaker":"james", "dialogue":"I informed the WEC LCSP, Kevin Short.  I told Kevin that I would start lining up the M&A team in the UK and the US and that Alison Hendry would be my first call given her recent successful engagement with WEC UK and her relationships with BSC in the UK.", "choices":[9], "coaching":"", "blotter":""},
		{ "id":7, "speaker":"james", "dialogue":"Matt was in New York earlier this year and I took him out to lunch. He told me then that we had won the work to advise WEC on the sale of BSC. I called the WEC LCSP, Kevin Short and left him a voicemail with the good news. Then Matt and I celebrated with a bottle of champagne!", "choices":[9], "coaching":"", "blotter":""},
		{ "id":8, "speaker":"james", "dialogue":"Matt and I have worked closely together on four deals over the last five or six years. All were acquisitions. BSC was the first divestiture - or potential divestiture.", "choices":[9], "coaching":"", "blotter":""},
		{ "id":9, "speaker":"player", "dialogue":"What did Kevin say to you when he heard that Deloitte had won the opportunity?", "choices":[10], "coaching":"", "blotter":""},
		{ "id":10, "speaker":"james", "dialogue":"He told me to immediately pull together an M&A engagement letter.", "choices":[11,12,13], "coaching":"M&A services have a higher degree of potential risk relative to other professional services. Therefore it is essential that M&A-specific engagement letters are used.  M&A-specific engagement letters include, among other things, acknowledgment of potential conflicts, limitations of the services, restrictions on use and distribution, appropriate limitation of liability, and indemnifications which are designed to protect the applicable Deloitte Entities from exposure to claims which may be vastly disproportionate to the economic benefits of the engagement fees expected.", "blotter":"James drafted a sell-side engagement letter for the deal."},
		{ "id":11, "speaker":"player", "dialogue":"Was there anything else that Kevin advised you in this regard?", "choices":[14], "coaching":"", "blotter":""},
		{ "id":12, "speaker":"player", "dialogue":"Did you do as he asked?", "choices":[15], "coaching":"", "blotter":""},
		{ "id":13, "speaker":"player", "dialogue":"Who did you work with at Deloitte to complete the engagement letter?", "choices":[16], "coaching":"", "blotter":""},
		{ "id":14, "speaker":"james", "dialogue":"He reminded me about Deloitte’s confidentiality obligations and the incremental exposure with WEC given that we had to agree to unlimited liability for breaches of confidentiality in prior engagement letters and we were expected to do the same on this one. He really wanted to make sure we handled things properly.  He said what he always says:  “My team is only as good as the weakest link!”  I knew Kevin’s drill!", "choices":[17,18,19], "coaching":["Clients have heightened sensitivities with respect to misuse of confidential information and are seeking with more frequency specific contractual provisions to transfer risks, such as unlimited liability or indemnification for Deloitte's breaches of confidentiality.","The engagement leader needs to set the right tone at the top and ensure that there are robust processes in place to identify, assess, and mitigate risks in the handling and use of confidential information.  In addition, he or she should ensure that all deal team members understand any non-standard obligations and incremental risks related to agreed upon contractual terms (e.g., unlimited liability for breaches of confidentiality) and the related steps to mitigate risk."], "blotter":["Deloitte had increased exposure with WEC because it had to agree to unlimited liability for its breaches of confidentiality.","Kevin reminded James to take additional steps to preserve confidentiality."]},
		{ "id":15, "speaker":"james", "dialogue":"Of course I did. I took care of everything.", "choices":[31], "coaching":"", "blotter":""},
		{ "id":16, "speaker":"james", "dialogue":"]  I did it myself. It's an easy process. I've prepared many engagement letters for clients. A no-brainer, really.", "choices":[31], "coaching":"", "blotter":""},
		{ "id":17, "speaker":"player", "dialogue":"Did Matt Green provide you with any information after he awarded you the engagement?", "choices":[20], "coaching":"", "blotter":""},
		{ "id":18, "speaker":"player", "dialogue":"What information did you ask Matt Green to provide you in order to begin your work?", "choices":[21], "coaching":"", "blotter":""},
		{ "id":19, "speaker":"player", "dialogue":"Did you get a Project codename and financial statements and other relevant data to begin your diligence procedures?", "choices":[22], "coaching":"", "blotter":""},
		{ "id":20, "speaker":"james", "dialogue":"Yes. Matt provided me with the Project codename and a preliminary draft of the stand-alone financial statements for the last two years that BSC management had pulled together.  He also mentioned that only certain members of management at WEC and BSC knew about the deal.", "choices":[23], "coaching":"To preserve confidential information, professional personnel and administrative staff should be vigilant to avoid inadvertent disclosures by using project codenames (e.g., Project X) and, as applicable, generic terms (e.g., client, buyer, target, and seller) in written communications, including client deliverables and engagement letters.  . [Add hyperlink to ethical wall/confidentiality guidance – Alycia to provide]", "blotter":"The client provided the project codename assigned to the sell-side deal."},
		{ "id":21, "speaker":"james", "dialogue":"Just the usual stuff. Financial statements and other relevant data he had; any valuations they had prepared; some idea of price range. That's it.", "choices":[24], "coaching":"", "blotter":""},
		{ "id":22, "speaker":"james", "dialogue":"Yes, we got both these early on, and I let our deal team know immediately.", "choices":[24], "coaching":"To preserve confidential information, professional personnel and administrative staff should be vigilant to avoid inadvertent disclosures by using project codenames (e.g., Project X) and, as applicable, generic terms (e.g., client, buyer, target, and seller) in written communications, including client deliverables and engagement letters.", "blotter":"The client provided the project codename assigned to the sell-side deal."},
		{ "id":23, "speaker":"player", "dialogue":"It sounds like they were really trying to keep the deal under wraps. Tell me more about WEC's concerns over who was to know about the deal.", "choices":[25], "coaching":"", "blotter":""},
		{ "id":24, "speaker":"player", "dialogue":"At a high level, did you notice any trends in the financial statements that Matt provided?", "choices":[26], "coaching":"", "blotter":""},
		{ "id":25, "speaker":"james", "dialogue":"There were only seven members of management who were aware of WEC's decision to sell BSC and we had to work with those individuals on all deal matters. Pretty paranoid, right?", "choices":[24], "coaching":"The M&A engagement team should limit discussions of confidential information to Client personnel who have a need to know and are authorized by client management to have access to such information.", "blotter":"Only seven members of WEC and BSC management were aware of WEC's decision to sell BSC and Deloitte had to work only with those individuals on all deal matters."},
		{ "id":26, "speaker":"james", "dialogue":"Yes. I noticed that the revenue numbers were deteriorating each quarter.  WEC and BSC needed to move fast if they were going to sell the business before there was further deterioration or else WEC would need to consider restructuring the business before the potential sale.", "choices":[27], "coaching":"", "blotter":""},
		{ "id":27, "speaker":"player", "dialogue":"I want to go back now to the engagement letter for a minute, and talk about how that got signed.", "choices":[28], "coaching":"", "blotter":""},
		{ "id":28, "speaker":"james", "dialogue":"Sure. It was pretty straightforward.", "choices":[29,30,31], "coaching":"", "blotter":""},
		{ "id":29, "speaker":"james", "dialogue":"Who at WEC reviewed and signed the engagement letter?", "choices":[32], "coaching":"", "blotter":""},
		{ "id":30, "speaker":"player", "dialogue":"Were there any issues getting the engagement letter signed?", "choices":[33], "coaching":"", "blotter":""},
		{ "id":31, "speaker":"player", "dialogue":"Who at Deloitte reviewed and signed the engagement letter?", "choices":[34], "coaching":"", "blotter":""},
		{ "id":32, "speaker":"james", "dialogue":"WEC's COO, Lew Smith, signed the letter.", "choices":[36], "coaching":"", "blotter":""},
		{ "id":33, "speaker":"james", "dialogue":"Well, that is an interesting question. I actually emailed the draft engagement letter to the wrong client! I was juggling a few transactions and working long hours. Also, unfortunately, I didn’t use the project codename in the draft letter that I sent.", "choices":[35], "coaching":"M&A practitioners and administrative personnel need to be especially vigilant when sending emails in order to avoid inadvertently sending an email with confidential information to unintended recipients, including those who may not be aware of the proposed transaction.  Client and target names should be removed from the subject line when creating or forwarding emails.", "blotter":"James emailed the draft engagement letter to the wrong client and did not use the project codename in the letter."},
		{ "id":34, "speaker":"james", "dialogue":"Kevin Short reviewed the engagement letter, but I signed it as the partner responsible for the engagement.", "choices":[36], "coaching":"", "blotter":""},
		{ "id":35, "speaker":"player", "dialogue":"How did that happen?", "choices":[37], "coaching":"", "blotter":""},
		{ "id":36, "speaker":"player", "dialogue":"Okay, great.  Let’s talk about your deal team members and their skills and experience.", "choices":[38], "coaching":"", "blotter":""},
		{ "id":37, "speaker":"james", "dialogue":"Funny you should mention that!  When I typed in Matt’s name in email, it auto-filled the address with Matt Greblen’s name at Sunland Oil Company and I didn’t notice that until I got a message back from Matt Greblen telling me!", "choices":[39], "coaching":"", "blotter":""},
		{ "id":38, "speaker":"james", "dialogue":"Sure. I picked the team myself.  They are all really good folks.", "choices":[40,41,42], "coaching":"", "blotter":""},
		{ "id":39, "speaker":"player", "dialogue":"So what did you do?", "choices":[43], "coaching":"", "blotter":""},
		{ "id":40, "speaker":"player", "dialogue":"What guidance, if any, did you give to your team about how to protect WEC and BSC confidential information?", "choices":[44], "coaching":"", "blotter":""},
		{ "id":41, "speaker":"player", "dialogue":"Did all of your engagement team members have M&A experience?", "choices":[45], "coaching":"", "blotter":""},
		{ "id":42, "speaker":"player", "dialogue":"Were you made aware of any potential conflicts with your engagement team members that required consultation with either an M&A QRM or OGC?", "choices":[46], "coaching":"", "blotter":""},
		{ "id":43, "speaker":"james", "dialogue":"I told Matt Green right away.  He was very frustrated with me and mentioned that he had to report this to his senior leadership.   I told him that I would fix the situation and apologized again.", "choices":[47], "coaching":"", "blotter":""},
		{ "id":44, "speaker":"james", "dialogue":"I sent out the M&A risk management practice alert on confidentiality and ethical walls for the entire team to read and to confirm that they had read and understood the guidance, which they all did.", "choices":[48], "coaching":"As an organization, we need to be able to demonstrate that we have developed and implemented defined, repeatable processes and actions to demonstrate to leadership, clients, regulators, and other key stakeholders that Deloitte has developed effective processes to handle confidential information, including appropriate training.", "blotter":"James sent the M&A risk management practice alert on confidentiality and ethical walls to the entire M&A team to confirm that they had read and understood the guidance."},
		{ "id":45, "speaker":"james", "dialogue":"No, we had two team members who were industry specialists with no M&A experience.", "choices":[49], "coaching":"The M&A engagement leader should ensure that each M&A team member, especially non-core M&A professionals/specialists, understands M&A policies, guidance and best practices for handling confidential information.  Confidentiality breaches pose a serious threat to Deloitte’s credibility, bringing into question our ethical processes and existing safeguards.", "blotter":"The sell-side team had two team members who were industry specialists with no M&A experience and had not received any specific training on confidentiality obligations and ethical walls in M&A."},
		{ "id":46, "speaker":"james", "dialogue":"No, I wasn't aware of any potential conflicts.", "choices":[48], "coaching":"The M&A engagement leader should oversee a process that makes appropriate inquiries of each potential engagement team member (including any specialists) to ascertain if such person has any personal conflicts.  For example, personal conflicts may arise when an engagement team member (including any specialist) has provided or is currently providing services to the target or their respective affiliates or an engagement team member (including any specialist) and/or such engagement team member’s close family member, (i) has a business relationship with the client, the target, or their respective affiliates or (ii) holds a financial interest in the client, the target, or their respective affiliates.  Personnel with personal conflicts should not participate on the M&A Services engagement.  [Add hyperlink to ethical wall/confidentiality guidance – Alycia to provide]", "blotter":"It is unclear whether James appropriately vetted engagement team members."},
		{ "id":47, "speaker":"player", "dialogue":"Did you inform anyone in Deloitte?", "choices":[50], "coaching":"", "blotter":""},
		{ "id":48, "speaker":"player", "dialogue":"Was there any specific advice you gave to your deal team on confidentiality?", "choices":[51], "coaching":"", "blotter":""},
		{ "id":49, "speaker":"player", "dialogue":"Did you provide them training on how to handle confidential information?", "choices":[52], "coaching":"", "blotter":""},
		{ "id":50, "speaker":"james", "dialogue":"Yes, of course. After I called Matt, my next call was to Kevin.", "choices":[53], "coaching":"", "blotter":""},
		{ "id":51, "speaker":"james", "dialogue":"I told the team that if anyone needed to be informed about this engagement outside of our deal team, then I had to be consulted prior to such disclosure. I felt that it was important to set the right tone at the outset.", "choices":[54], "coaching":"", "blotter":""},
		{ "id":52, "speaker":"james", "dialogue":"No, but I did send them the M&A risk management practice alert on confidentiality and ethical walls. In hindsight, I guess I should have also provided more specific training.", "choices":[48], "coaching":"", "blotter":""},
		{ "id":53, "speaker":"player", "dialogue":"What did he say?", "choices":[55], "coaching":"", "blotter":""},
		{ "id":54, "speaker":"player", "dialogue":"Ok, Let's bring this up to date a bit. Since your sell-side advisory engagement was terminated two months ago, why do you think Matt Green reached out to you recently?", "choices":[56], "coaching":"", "blotter":""},
		{ "id":55, "speaker":"james", "dialogue":"Well, as you can imagine, he was not very happy, but understood that accidents do happen. He told me that my first step should have been to call the \"wrong\" client and tell them I had sent them a document in error and ask them to destroy it. I did all that and I thought - until now I guess - that there was no issue.", "choices":[36], "coaching":"When involved with a breach of confidential information of this nature, the M&A practitioner should immediately consult with OGC and an M&A QRM as every situation is different and will require a tailored response based on the specific facts and circumstances.  Subsequent to such consultation, the next step may be to inform the unintended recipient, preferably in writing, that he/she received confidential information in error and request that he/she confirm that such confidential information has been destroyed.", "blotter":"James told Matt Green and Kevin Short about the inadvertent disclosure of the engagement letter.  James called the unintended recipient of the WEC engagement letter and asked him to destroy it."},
		{ "id":56, "speaker":"james", "dialogue":"Well, when our WEC and BSC engagement was terminated, Matt told us that WEC had decided to change its strategy with respect to BSC and not sell the business at this time.  So I knew Matt wasn’t calling to re-engage us for the sell-side advisory services.  I could tell from the tone of his voice in the message that Matt was very upset about something.", "choices":[57,58,59], "coaching":"", "blotter":""},
		{ "id":57, "speaker":"player", "dialogue":"Did you reach out to your team members on the sell-side engagement to see if they had any insight regarding Matt’s message?  ", "choices":[60], "coaching":"", "blotter":""},
		{ "id":58, "speaker":"player", "dialogue":"What do you think Matt was upset about?", "choices":[61], "coaching":"", "blotter":""},
		{ "id":59, "speaker":"player", "dialogue":"Do you think Matt was overreacting?", "choices":[62], "coaching":"", "blotter":""},
		{ "id":60, "speaker":"james", "dialogue":"Yes. I reached out to my team members and asked them if they had any recent contact with anyone at WEC. No one said that they had except Alison, who mentioned that she had met for lunch with Claire Fields to discuss recent industry trends.", "choices":[63], "coaching":":  In a Client crisis situation, an internal investigation should be performed thoroughly and timely.  The engagement leader should contact relevant Deloitte team members to understand their recent involvement and interaction with the Client so that appropriate steps can be taken to remediate the situation.", "blotter":"James asked the sell-side team members if anyone had contacted WEC recently and Alison Hendry was the only team member to have contacted WEC (Claire Fields) to discuss recent industry trends."},
		{ "id":61, "speaker":"james", "dialogue":"I am honestly not sure. In his call to me he mentioned \"trust and credibility\" and that we needed to \"get our house in order\". But he refused to elaborate. He was either really annoyed or under instructions not to say anything more.", "choices":[63], "coaching":"One of our most important and fundamental professional responsibilities is the maintenance, protection, and appropriate use of confidential information.  If we violate a client’s trust by inappropriately using or disclosing client information to others inside or outside the Deloitte network, that trust is difficult to regain and its loss can have significant reputational and financial impacts.", "blotter":"James did not know why Matt was upset.  He only knew it had something to do with a loss of trust."},
		{ "id":62, "speaker":"james", "dialogue":"Well, I know he is under a lot of pressure right now. He has mentioned a number of times recently that this is a tough time as WEC is undergoing a number of leadership and cultural changes.", "choices":[63], "coaching":"", "blotter":""},
		{ "id":63, "speaker":"player", "dialogue":"Did you tell Kevin?", "choices":[64], "coaching":"", "blotter":""},
		{ "id":64, "speaker":"james", "dialogue":"Well, actually, Kevin reached out to me shortly thereafter and informed me that he received a complaint directly from WEC’s CEO.  I told him about my cryptic and angry message from Matt.  I also told him that in response to Matt’s message, I had reached out to my team members, but no one other than Alison had any discussions with the client since the sell-side advisory engagement ended.", "choices":[65,66,67], "coaching":"", "blotter":""},
		{ "id":65, "speaker":"player", "dialogue":"Did Kevin ask you to follow up with Alison again?", "choices":[68], "coaching":"", "blotter":""},
		{ "id":66, "speaker":"player", "dialogue":"Was Kevin able to contact WEC senior management to obtain more details?", "choices":[69], "coaching":"", "blotter":""},
		{ "id":67, "speaker":"player", "dialogue":"How has Kevin taken all this?", "choices":[70], "coaching":"", "blotter":""},
		{ "id":68, "speaker":"james", "dialogue":"Yes, but I did not get around to it. In the scheme of things, it was a minor thing to follow up on. It was a relationship-building lunch. Happens all the time.", "choices":[71], "coaching":"When a client questions Deloitte's trust and credibility, including that of any of our personnel, the matter should be thoroughly investigated.  The LCSP should consult with appropriate leadership, OGC and M&A QRM to strategize as to what immediate steps should be taken, including questions to be asked.", "blotter":"Kevin asked James to follow-up with Alison but he did not."},
		{ "id":69, "speaker":"james", "dialogue":"No, apparently they are refusing to take his calls or respond to his email requests. They have really shut us out for now.", "choices":[71], "coaching":"If a client believes Deloitte has breached its confidentiality obligations, it usually has the immediate attention of senior leadership within our client's organization.  In dealing with sensitive matters like this, it is important that Deloitte's relationships with  client management are strong; otherwise, it may become much more difficult to address and resolve our client's concerns.", "blotter":"WEC senior management refused to take Kevin's calls or respond to email messages."},
		{ "id":70, "speaker":"james", "dialogue":"He seemed to be both puzzled and concerned as to why WEC's leadership was having such an adverse reaction.", "choices":[71], "coaching":"", "blotter":""},
		{ "id":71, "speaker":"player", "dialogue":"James, our time is up, but thank you for your insights. They have been very helpful. We will let you know more once the investigation is complete.", "choices":[0], "coaching":"", "blotter":""}
	],
	"alison":[
		{ "id":1, "speaker":"", "dialogue":"", "choices":[], "coaching":"", "blotter":""},
		{ "id":2, "speaker":"", "dialogue":"", "choices":[], "coaching":"", "blotter":""},
		{ "id":3, "speaker":"", "dialogue":"", "choices":[], "coaching":"", "blotter":""},
		{ "id":4, "speaker":"", "dialogue":"", "choices":[], "coaching":"", "blotter":""},
		{ "id":5, "speaker":"", "dialogue":"", "choices":[], "coaching":"", "blotter":""},
		{ "id":6, "speaker":"", "dialogue":"", "choices":[], "coaching":"", "blotter":""},
		{ "id":7, "speaker":"", "dialogue":"", "choices":[], "coaching":"", "blotter":""},
		{ "id":8, "speaker":"", "dialogue":"", "choices":[], "coaching":"", "blotter":""},
		{ "id":9, "speaker":"", "dialogue":"", "choices":[], "coaching":"", "blotter":""},
		{ "id":10, "speaker":"", "dialogue":"", "choices":[], "coaching":"", "blotter":""},
		{ "id":11, "speaker":"", "dialogue":"", "choices":[], "coaching":"", "blotter":""},
		{ "id":12, "speaker":"", "dialogue":"", "choices":[], "coaching":"", "blotter":""},
		{ "id":13, "speaker":"", "dialogue":"", "choices":[], "coaching":"", "blotter":""},
		{ "id":14, "speaker":"", "dialogue":"", "choices":[], "coaching":"", "blotter":""},
		{ "id":15, "speaker":"", "dialogue":"", "choices":[], "coaching":"", "blotter":""},
		{ "id":16, "speaker":"", "dialogue":"", "choices":[], "coaching":"", "blotter":""},
		{ "id":17, "speaker":"", "dialogue":"", "choices":[], "coaching":"", "blotter":""},
		{ "id":18, "speaker":"", "dialogue":"", "choices":[], "coaching":"", "blotter":""},
		{ "id":19, "speaker":"", "dialogue":"", "choices":[], "coaching":"", "blotter":""},
		{ "id":20, "speaker":"", "dialogue":"", "choices":[], "coaching":"", "blotter":""},
		{ "id":21, "speaker":"", "dialogue":"", "choices":[], "coaching":"", "blotter":""},
		{ "id":22, "speaker":"", "dialogue":"", "choices":[], "coaching":"", "blotter":""},
		{ "id":23, "speaker":"", "dialogue":"", "choices":[], "coaching":"", "blotter":""},
		{ "id":24, "speaker":"", "dialogue":"", "choices":[], "coaching":"", "blotter":""},
		{ "id":25, "speaker":"", "dialogue":"", "choices":[], "coaching":"", "blotter":""},
		{ "id":26, "speaker":"", "dialogue":"", "choices":[], "coaching":"", "blotter":""},
		{ "id":27, "speaker":"", "dialogue":"", "choices":[], "coaching":"", "blotter":""},
		{ "id":28, "speaker":"", "dialogue":"", "choices":[], "coaching":"", "blotter":""},
		{ "id":29, "speaker":"", "dialogue":"", "choices":[], "coaching":"", "blotter":""},
		{ "id":30, "speaker":"", "dialogue":"", "choices":[], "coaching":"", "blotter":""},
		{ "id":31, "speaker":"", "dialogue":"", "choices":[], "coaching":"", "blotter":""},
		{ "id":32, "speaker":"", "dialogue":"", "choices":[], "coaching":"", "blotter":""},
		{ "id":33, "speaker":"", "dialogue":"", "choices":[], "coaching":"", "blotter":""},
		{ "id":34, "speaker":"", "dialogue":"", "choices":[], "coaching":"", "blotter":""},
		{ "id":35, "speaker":"", "dialogue":"", "choices":[], "coaching":"", "blotter":""},
		{ "id":36, "speaker":"", "dialogue":"", "choices":[], "coaching":"", "blotter":""},
		{ "id":37, "speaker":"", "dialogue":"", "choices":[], "coaching":"", "blotter":""},
		{ "id":38, "speaker":"", "dialogue":"", "choices":[], "coaching":"", "blotter":""},
		{ "id":39, "speaker":"", "dialogue":"", "choices":[], "coaching":"", "blotter":""},
		{ "id":40, "speaker":"", "dialogue":"", "choices":[], "coaching":"", "blotter":""},
		{ "id":41, "speaker":"", "dialogue":"", "choices":[], "coaching":"", "blotter":""},
		{ "id":42, "speaker":"", "dialogue":"", "choices":[], "coaching":"", "blotter":""},
		{ "id":43, "speaker":"", "dialogue":"", "choices":[], "coaching":"", "blotter":""},
		{ "id":44, "speaker":"", "dialogue":"", "choices":[], "coaching":"", "blotter":""},
		{ "id":45, "speaker":"", "dialogue":"", "choices":[], "coaching":"", "blotter":""},
		{ "id":46, "speaker":"", "dialogue":"", "choices":[], "coaching":"", "blotter":""},
		{ "id":47, "speaker":"", "dialogue":"", "choices":[], "coaching":"", "blotter":""},
		{ "id":48, "speaker":"", "dialogue":"", "choices":[], "coaching":"", "blotter":""},
		{ "id":49, "speaker":"", "dialogue":"", "choices":[], "coaching":"", "blotter":""},
		{ "id":50, "speaker":"", "dialogue":"", "choices":[], "coaching":"", "blotter":""},
		{ "id":51, "speaker":"", "dialogue":"", "choices":[], "coaching":"", "blotter":""},
		{ "id":52, "speaker":"", "dialogue":"", "choices":[], "coaching":"", "blotter":""},
		{ "id":53, "speaker":"", "dialogue":"", "choices":[], "coaching":"", "blotter":""},
		{ "id":54, "speaker":"", "dialogue":"", "choices":[], "coaching":"", "blotter":""},
		{ "id":55, "speaker":"", "dialogue":"", "choices":[], "coaching":"", "blotter":""},
		{ "id":56, "speaker":"", "dialogue":"", "choices":[], "coaching":"", "blotter":""},
		{ "id":57, "speaker":"", "dialogue":"", "choices":[], "coaching":"", "blotter":""},
		{ "id":58, "speaker":"", "dialogue":"", "choices":[], "coaching":"", "blotter":""},
		{ "id":59, "speaker":"", "dialogue":"", "choices":[], "coaching":"", "blotter":""},
		{ "id":60, "speaker":"", "dialogue":"", "choices":[], "coaching":"", "blotter":""},
		{ "id":61, "speaker":"", "dialogue":"", "choices":[], "coaching":"", "blotter":""},
		{ "id":62, "speaker":"", "dialogue":"", "choices":[], "coaching":"", "blotter":""},
		{ "id":63, "speaker":"", "dialogue":"", "choices":[], "coaching":"", "blotter":""},
		{ "id":64, "speaker":"", "dialogue":"", "choices":[], "coaching":"", "blotter":""},
		{ "id":65, "speaker":"", "dialogue":"", "choices":[], "coaching":"", "blotter":""},
		{ "id":66, "speaker":"", "dialogue":"", "choices":[], "coaching":"", "blotter":""},
		{ "id":67, "speaker":"", "dialogue":"", "choices":[], "coaching":"", "blotter":""},
		{ "id":68, "speaker":"", "dialogue":"", "choices":[], "coaching":"", "blotter":""},
		{ "id":69, "speaker":"", "dialogue":"", "choices":[], "coaching":"", "blotter":""},
		{ "id":70, "speaker":"", "dialogue":"", "choices":[], "coaching":"", "blotter":""},
		{ "id":71, "speaker":"", "dialogue":"", "choices":[], "coaching":"", "blotter":""}
	],
	"tammy":[
		{ "id":1, "speaker":"", "dialogue":"", "choices":[], "coaching":"", "blotter":""},
		{ "id":2, "speaker":"", "dialogue":"", "choices":[], "coaching":"", "blotter":""},
		{ "id":3, "speaker":"", "dialogue":"", "choices":[], "coaching":"", "blotter":""},
		{ "id":4, "speaker":"", "dialogue":"", "choices":[], "coaching":"", "blotter":""},
		{ "id":5, "speaker":"", "dialogue":"", "choices":[], "coaching":"", "blotter":""},
		{ "id":6, "speaker":"", "dialogue":"", "choices":[], "coaching":"", "blotter":""},
		{ "id":7, "speaker":"", "dialogue":"", "choices":[], "coaching":"", "blotter":""},
		{ "id":8, "speaker":"", "dialogue":"", "choices":[], "coaching":"", "blotter":""},
		{ "id":9, "speaker":"", "dialogue":"", "choices":[], "coaching":"", "blotter":""},
		{ "id":10, "speaker":"", "dialogue":"", "choices":[], "coaching":"", "blotter":""},
		{ "id":11, "speaker":"", "dialogue":"", "choices":[], "coaching":"", "blotter":""},
		{ "id":12, "speaker":"", "dialogue":"", "choices":[], "coaching":"", "blotter":""},
		{ "id":13, "speaker":"", "dialogue":"", "choices":[], "coaching":"", "blotter":""},
		{ "id":14, "speaker":"", "dialogue":"", "choices":[], "coaching":"", "blotter":""},
		{ "id":15, "speaker":"", "dialogue":"", "choices":[], "coaching":"", "blotter":""},
		{ "id":16, "speaker":"", "dialogue":"", "choices":[], "coaching":"", "blotter":""},
		{ "id":17, "speaker":"", "dialogue":"", "choices":[], "coaching":"", "blotter":""},
		{ "id":18, "speaker":"", "dialogue":"", "choices":[], "coaching":"", "blotter":""},
		{ "id":19, "speaker":"", "dialogue":"", "choices":[], "coaching":"", "blotter":""},
		{ "id":20, "speaker":"", "dialogue":"", "choices":[], "coaching":"", "blotter":""},
		{ "id":21, "speaker":"", "dialogue":"", "choices":[], "coaching":"", "blotter":""},
		{ "id":22, "speaker":"", "dialogue":"", "choices":[], "coaching":"", "blotter":""},
		{ "id":23, "speaker":"", "dialogue":"", "choices":[], "coaching":"", "blotter":""},
		{ "id":24, "speaker":"", "dialogue":"", "choices":[], "coaching":"", "blotter":""},
		{ "id":25, "speaker":"", "dialogue":"", "choices":[], "coaching":"", "blotter":""},
		{ "id":26, "speaker":"", "dialogue":"", "choices":[], "coaching":"", "blotter":""},
		{ "id":27, "speaker":"", "dialogue":"", "choices":[], "coaching":"", "blotter":""},
		{ "id":28, "speaker":"", "dialogue":"", "choices":[], "coaching":"", "blotter":""},
		{ "id":29, "speaker":"", "dialogue":"", "choices":[], "coaching":"", "blotter":""},
		{ "id":30, "speaker":"", "dialogue":"", "choices":[], "coaching":"", "blotter":""},
		{ "id":31, "speaker":"", "dialogue":"", "choices":[], "coaching":"", "blotter":""},
		{ "id":32, "speaker":"", "dialogue":"", "choices":[], "coaching":"", "blotter":""},
		{ "id":33, "speaker":"", "dialogue":"", "choices":[], "coaching":"", "blotter":""},
		{ "id":34, "speaker":"", "dialogue":"", "choices":[], "coaching":"", "blotter":""},
		{ "id":35, "speaker":"", "dialogue":"", "choices":[], "coaching":"", "blotter":""},
		{ "id":36, "speaker":"", "dialogue":"", "choices":[], "coaching":"", "blotter":""},
		{ "id":37, "speaker":"", "dialogue":"", "choices":[], "coaching":"", "blotter":""},
		{ "id":38, "speaker":"", "dialogue":"", "choices":[], "coaching":"", "blotter":""},
		{ "id":39, "speaker":"", "dialogue":"", "choices":[], "coaching":"", "blotter":""},
		{ "id":40, "speaker":"", "dialogue":"", "choices":[], "coaching":"", "blotter":""},
		{ "id":41, "speaker":"", "dialogue":"", "choices":[], "coaching":"", "blotter":""},
		{ "id":42, "speaker":"", "dialogue":"", "choices":[], "coaching":"", "blotter":""},
		{ "id":43, "speaker":"", "dialogue":"", "choices":[], "coaching":"", "blotter":""},
		{ "id":44, "speaker":"", "dialogue":"", "choices":[], "coaching":"", "blotter":""},
		{ "id":45, "speaker":"", "dialogue":"", "choices":[], "coaching":"", "blotter":""},
		{ "id":46, "speaker":"", "dialogue":"", "choices":[], "coaching":"", "blotter":""},
		{ "id":47, "speaker":"", "dialogue":"", "choices":[], "coaching":"", "blotter":""},
		{ "id":48, "speaker":"", "dialogue":"", "choices":[], "coaching":"", "blotter":""},
		{ "id":49, "speaker":"", "dialogue":"", "choices":[], "coaching":"", "blotter":""},
		{ "id":50, "speaker":"", "dialogue":"", "choices":[], "coaching":"", "blotter":""},
		{ "id":51, "speaker":"", "dialogue":"", "choices":[], "coaching":"", "blotter":""},
		{ "id":52, "speaker":"", "dialogue":"", "choices":[], "coaching":"", "blotter":""},
		{ "id":53, "speaker":"", "dialogue":"", "choices":[], "coaching":"", "blotter":""},
		{ "id":54, "speaker":"", "dialogue":"", "choices":[], "coaching":"", "blotter":""},
		{ "id":55, "speaker":"", "dialogue":"", "choices":[], "coaching":"", "blotter":""},
		{ "id":56, "speaker":"", "dialogue":"", "choices":[], "coaching":"", "blotter":""},
		{ "id":57, "speaker":"", "dialogue":"", "choices":[], "coaching":"", "blotter":""},
		{ "id":58, "speaker":"", "dialogue":"", "choices":[], "coaching":"", "blotter":""},
		{ "id":59, "speaker":"", "dialogue":"", "choices":[], "coaching":"", "blotter":""},
		{ "id":60, "speaker":"", "dialogue":"", "choices":[], "coaching":"", "blotter":""},
		{ "id":61, "speaker":"", "dialogue":"", "choices":[], "coaching":"", "blotter":""},
		{ "id":62, "speaker":"", "dialogue":"", "choices":[], "coaching":"", "blotter":""},
		{ "id":63, "speaker":"", "dialogue":"", "choices":[], "coaching":"", "blotter":""},
		{ "id":64, "speaker":"", "dialogue":"", "choices":[], "coaching":"", "blotter":""},
		{ "id":65, "speaker":"", "dialogue":"", "choices":[], "coaching":"", "blotter":""},
		{ "id":66, "speaker":"", "dialogue":"", "choices":[], "coaching":"", "blotter":""},
		{ "id":67, "speaker":"", "dialogue":"", "choices":[], "coaching":"", "blotter":""},
		{ "id":68, "speaker":"", "dialogue":"", "choices":[], "coaching":"", "blotter":""},
		{ "id":69, "speaker":"", "dialogue":"", "choices":[], "coaching":"", "blotter":""},
		{ "id":70, "speaker":"", "dialogue":"", "choices":[], "coaching":"", "blotter":""},
		{ "id":71, "speaker":"", "dialogue":"", "choices":[], "coaching":"", "blotter":""}
	],
	"kevin":[
		{ "id":1, "speaker":"", "dialogue":"", "choices":[], "coaching":"", "blotter":""},
		{ "id":2, "speaker":"", "dialogue":"", "choices":[], "coaching":"", "blotter":""},
		{ "id":3, "speaker":"", "dialogue":"", "choices":[], "coaching":"", "blotter":""},
		{ "id":4, "speaker":"", "dialogue":"", "choices":[], "coaching":"", "blotter":""},
		{ "id":5, "speaker":"", "dialogue":"", "choices":[], "coaching":"", "blotter":""},
		{ "id":6, "speaker":"", "dialogue":"", "choices":[], "coaching":"", "blotter":""},
		{ "id":7, "speaker":"", "dialogue":"", "choices":[], "coaching":"", "blotter":""},
		{ "id":8, "speaker":"", "dialogue":"", "choices":[], "coaching":"", "blotter":""},
		{ "id":9, "speaker":"", "dialogue":"", "choices":[], "coaching":"", "blotter":""},
		{ "id":10, "speaker":"", "dialogue":"", "choices":[], "coaching":"", "blotter":""},
		{ "id":11, "speaker":"", "dialogue":"", "choices":[], "coaching":"", "blotter":""},
		{ "id":12, "speaker":"", "dialogue":"", "choices":[], "coaching":"", "blotter":""},
		{ "id":13, "speaker":"", "dialogue":"", "choices":[], "coaching":"", "blotter":""},
		{ "id":14, "speaker":"", "dialogue":"", "choices":[], "coaching":"", "blotter":""},
		{ "id":15, "speaker":"", "dialogue":"", "choices":[], "coaching":"", "blotter":""},
		{ "id":16, "speaker":"", "dialogue":"", "choices":[], "coaching":"", "blotter":""},
		{ "id":17, "speaker":"", "dialogue":"", "choices":[], "coaching":"", "blotter":""},
		{ "id":18, "speaker":"", "dialogue":"", "choices":[], "coaching":"", "blotter":""},
		{ "id":19, "speaker":"", "dialogue":"", "choices":[], "coaching":"", "blotter":""},
		{ "id":20, "speaker":"", "dialogue":"", "choices":[], "coaching":"", "blotter":""},
		{ "id":21, "speaker":"", "dialogue":"", "choices":[], "coaching":"", "blotter":""},
		{ "id":22, "speaker":"", "dialogue":"", "choices":[], "coaching":"", "blotter":""},
		{ "id":23, "speaker":"", "dialogue":"", "choices":[], "coaching":"", "blotter":""},
		{ "id":24, "speaker":"", "dialogue":"", "choices":[], "coaching":"", "blotter":""},
		{ "id":25, "speaker":"", "dialogue":"", "choices":[], "coaching":"", "blotter":""},
		{ "id":26, "speaker":"", "dialogue":"", "choices":[], "coaching":"", "blotter":""},
		{ "id":27, "speaker":"", "dialogue":"", "choices":[], "coaching":"", "blotter":""},
		{ "id":28, "speaker":"", "dialogue":"", "choices":[], "coaching":"", "blotter":""},
		{ "id":29, "speaker":"", "dialogue":"", "choices":[], "coaching":"", "blotter":""},
		{ "id":30, "speaker":"", "dialogue":"", "choices":[], "coaching":"", "blotter":""},
		{ "id":31, "speaker":"", "dialogue":"", "choices":[], "coaching":"", "blotter":""},
		{ "id":32, "speaker":"", "dialogue":"", "choices":[], "coaching":"", "blotter":""},
		{ "id":33, "speaker":"", "dialogue":"", "choices":[], "coaching":"", "blotter":""},
		{ "id":34, "speaker":"", "dialogue":"", "choices":[], "coaching":"", "blotter":""},
		{ "id":35, "speaker":"", "dialogue":"", "choices":[], "coaching":"", "blotter":""},
		{ "id":36, "speaker":"", "dialogue":"", "choices":[], "coaching":"", "blotter":""},
		{ "id":37, "speaker":"", "dialogue":"", "choices":[], "coaching":"", "blotter":""},
		{ "id":38, "speaker":"", "dialogue":"", "choices":[], "coaching":"", "blotter":""},
		{ "id":39, "speaker":"", "dialogue":"", "choices":[], "coaching":"", "blotter":""},
		{ "id":40, "speaker":"", "dialogue":"", "choices":[], "coaching":"", "blotter":""},
		{ "id":41, "speaker":"", "dialogue":"", "choices":[], "coaching":"", "blotter":""},
		{ "id":42, "speaker":"", "dialogue":"", "choices":[], "coaching":"", "blotter":""},
		{ "id":43, "speaker":"", "dialogue":"", "choices":[], "coaching":"", "blotter":""},
		{ "id":44, "speaker":"", "dialogue":"", "choices":[], "coaching":"", "blotter":""},
		{ "id":45, "speaker":"", "dialogue":"", "choices":[], "coaching":"", "blotter":""},
		{ "id":46, "speaker":"", "dialogue":"", "choices":[], "coaching":"", "blotter":""},
		{ "id":47, "speaker":"", "dialogue":"", "choices":[], "coaching":"", "blotter":""},
		{ "id":48, "speaker":"", "dialogue":"", "choices":[], "coaching":"", "blotter":""},
		{ "id":49, "speaker":"", "dialogue":"", "choices":[], "coaching":"", "blotter":""},
		{ "id":50, "speaker":"", "dialogue":"", "choices":[], "coaching":"", "blotter":""},
		{ "id":51, "speaker":"", "dialogue":"", "choices":[], "coaching":"", "blotter":""},
		{ "id":52, "speaker":"", "dialogue":"", "choices":[], "coaching":"", "blotter":""},
		{ "id":53, "speaker":"", "dialogue":"", "choices":[], "coaching":"", "blotter":""},
		{ "id":54, "speaker":"", "dialogue":"", "choices":[], "coaching":"", "blotter":""},
		{ "id":55, "speaker":"", "dialogue":"", "choices":[], "coaching":"", "blotter":""},
		{ "id":56, "speaker":"", "dialogue":"", "choices":[], "coaching":"", "blotter":""},
		{ "id":57, "speaker":"", "dialogue":"", "choices":[], "coaching":"", "blotter":""},
		{ "id":58, "speaker":"", "dialogue":"", "choices":[], "coaching":"", "blotter":""},
		{ "id":59, "speaker":"", "dialogue":"", "choices":[], "coaching":"", "blotter":""},
		{ "id":60, "speaker":"", "dialogue":"", "choices":[], "coaching":"", "blotter":""},
		{ "id":61, "speaker":"", "dialogue":"", "choices":[], "coaching":"", "blotter":""},
		{ "id":62, "speaker":"", "dialogue":"", "choices":[], "coaching":"", "blotter":""},
		{ "id":63, "speaker":"", "dialogue":"", "choices":[], "coaching":"", "blotter":""},
		{ "id":64, "speaker":"", "dialogue":"", "choices":[], "coaching":"", "blotter":""},
		{ "id":65, "speaker":"", "dialogue":"", "choices":[], "coaching":"", "blotter":""},
		{ "id":66, "speaker":"", "dialogue":"", "choices":[], "coaching":"", "blotter":""},
		{ "id":67, "speaker":"", "dialogue":"", "choices":[], "coaching":"", "blotter":""},
		{ "id":68, "speaker":"", "dialogue":"", "choices":[], "coaching":"", "blotter":""},
		{ "id":69, "speaker":"", "dialogue":"", "choices":[], "coaching":"", "blotter":""},
		{ "id":70, "speaker":"", "dialogue":"", "choices":[], "coaching":"", "blotter":""},
		{ "id":71, "speaker":"", "dialogue":"", "choices":[], "coaching":"", "blotter":""}
	]
}